உங்கள் கணினியை மீட்டெடுக்க உள்ளீர்கள். இது ஒரு சக்தி மூலத்தில் செருகப்பட்டுள்ளது என்பதை உறுதிபடுத்துக.

மீட்டெடுப்பை ரத்துசெய்ய விரும்பினால், கணினி அணையும் வரை (இது 8 வினாடிகள் வரை எடுக்கும்) பவர் பொத்தானை அழுத்தி, பிடிக்கவும்.
சரிபார்க்கும்போது, எந்த நேரத்திலும் இதைச் செய்வது பாதுகாப்பானதாக இருக்கும்.
