તમે તમારા કમ્પ્યુટરને પુનર્પ્રાપ્ત કરવા જઈ રહ્યાં છો. કૃપા કરીને ખાતરી કરો કે તે પાવર સ્રોતમાં પ્લગ ઇન થયેલું છે.

જો તમે પુનર્પ્રાપ્તિને રદ કરવા માગતા હો, તો પાવર બટનને દબાવો અને કમ્પ્યુટર બંધ ન થઈ જાય ત્યાં સુધી તેને પકડી રાખો (તેને 8 સેકંડ જેટલો સમય લાગે છે).
ચકાસણી દરમિયાન કોઈપણ સમયે આમ કરવું સુરક્ષિત છે. 