আপনার পুনরুদ্ধার মিডিয়ার চিত্রটি হল কোনো যাচাই না করা বিকাশকারীর চিত্র৷

যাচাই বুট বন্ধ হওয়ার কারণে পুনরুদ্ধার বহাল রাখা হবে৷
আপনি যদি পরে আবার যাচাইকরণ চালু করতে চান, আপনার কোনো অফিসিয়াল Chrome OS চিত্রের সঙ্গে পুনরায় ঘটা পুনরাবৃত্তির প্রয়োজন হবে৷
