आपला संगणक Chrome OS सिस्टिम असल्यासारखे दिसत नाही!

या ऑपरेशनमुळे आपण स्थापित करू शकता अशी कोणतीही अन्य ऑपरेटिंग प्रणाली
आणि सर्व डेटा हटविला जाईल; बॅक अप घेण्यासाठी कोणतीही संधी नसेल.
आपण सुरक्षित करू इच्छित असलेला कोणताही डेटा या संगणकावर असल्यास,
आपण पुनर्प्राप्ती रद्द करावी.
