ನಿಮ್ಮ ಕಂಪ್ಯೂಟರ್ ಅನ್ನು ನೀವು ಮರುಪಡೆಯಲಿರುವಿರಿ. ಇದನ್ನು ವಿದ್ಯುತ್ ಮೂಲಕ್ಕೆ ಸರಿಯಾಗಿ ಪ್ಲಗ್ ಮಾಡಲಾಗಿದೆಯೇ ಎಂಬುದನ್ನು ಖಾತ್ರಿಪಡಿಸಿಕೊಳ್ಳಿ.

ನೀವು ಮರುಪಡೆಯುವಿಕೆಯನ್ನು ರದ್ದುಪಡಿಸಲು ಬಯಸಿದಲ್ಲಿ, ಪವರ್ ಬಟನ್ ಅನ್ನು ಒತ್ತಿರಿ ಮತ್ತು ಕಂಪ್ಯೂಟರ್ ಅನ್ನು ಆಫ್ ಮಾಡುವವರೆಗೂ ಒತ್ತಿ ಹಿಡಿಯಿರಿ (ಇದಕ್ಕೆ 8 ಸೆಕೆಂಡ್‌ಗಳು  ಬೇಕಾಗುತ್ತದೆ).
ಪರಿಶೀಲನಾ ಅವಧಿಯ ಯಾವುದೇ ಕ್ಷಣದಲ್ಲೂ ಇದನ್ನು ಮಾಡುವುದು ಸುರಕ್ಷಿತ.
