आपका कंप्‍यूटर Chrome OS सिस्‍टम प्रतीत नहीं होता!

इस कार्यवाही से आपके द्वारा इंस्‍टॉल किया गया कोई अन्‍य ऑपरेटिंग सिस्टम
और सभी डेटा हट जाएगा; बैकअप लेने का कोई अवसर नहीं होगा.
यदि आपके पास इस कंप्‍यूटर पर ऐसा कोई डेटा है, जिसे आप सुरक्षित करना चाहते हैं, तो आपको पुनर्प्राप्ति रद्द कर देना चाहिए.
